%YAML 1.1
%TAG !u! tag:unity3d.com,2011:
--- !u!1001 &5585752045004229354
PrefabInstance:
  m_ObjectHideFlags: 0
  serializedVersion: 2
  m_Modification:
    m_TransformParent: {fileID: 0}
    m_Modifications:
    - target: {fileID: 505682986, guid: 4c1c70fe5b48da64da0f127af1defa23, type: 3}
      propertyPath: isBreakable
      value: 1
      objectReference: {fileID: 0}
    - target: {fileID: 505682986, guid: 4c1c70fe5b48da64da0f127af1defa23, type: 3}
      propertyPath: jumpBeforeBreak
      value: 2
      objectReference: {fileID: 0}
    - target: {fileID: 1257377779800189845, guid: 4c1c70fe5b48da64da0f127af1defa23,
        type: 3}
      propertyPath: m_Name
      value: BreakablePlatform Variant
      objectReference: {fileID: 0}
    - target: {fileID: 2672483660184924046, guid: 4c1c70fe5b48da64da0f127af1defa23,
        type: 3}
      propertyPath: m_Color.b
      value: 0
      objectReference: {fileID: 0}
    - target: {fileID: 2672483660184924046, guid: 4c1c70fe5b48da64da0f127af1defa23,
        type: 3}
      propertyPath: m_Color.g
      value: 0
      objectReference: {fileID: 0}
    - target: {fileID: 2672483660184924046, guid: 4c1c70fe5b48da64da0f127af1defa23,
        type: 3}
      propertyPath: m_Color.r
      value: 0
      objectReference: {fileID: 0}
    - target: {fileID: 6325864983066269234, guid: 4c1c70fe5b48da64da0f127af1defa23,
        type: 3}
      propertyPath: m_RootOrder
      value: 0
      objectReference: {fileID: 0}
    - target: {fileID: 6325864983066269234, guid: 4c1c70fe5b48da64da0f127af1defa23,
        type: 3}
      propertyPath: m_LocalPosition.x
      value: 0
      objectReference: {fileID: 0}
    - target: {fileID: 6325864983066269234, guid: 4c1c70fe5b48da64da0f127af1defa23,
        type: 3}
      propertyPath: m_LocalPosition.y
      value: 0
      objectReference: {fileID: 0}
    - target: {fileID: 6325864983066269234, guid: 4c1c70fe5b48da64da0f127af1defa23,
        type: 3}
      propertyPath: m_LocalPosition.z
      value: 0
      objectReference: {fileID: 0}
    - target: {fileID: 6325864983066269234, guid: 4c1c70fe5b48da64da0f127af1defa23,
        type: 3}
      propertyPath: m_LocalRotation.w
      value: 1
      objectReference: {fileID: 0}
    - target: {fileID: 6325864983066269234, guid: 4c1c70fe5b48da64da0f127af1defa23,
        type: 3}
      propertyPath: m_LocalRotation.x
      value: 0
      objectReference: {fileID: 0}
    - target: {fileID: 6325864983066269234, guid: 4c1c70fe5b48da64da0f127af1defa23,
        type: 3}
      propertyPath: m_LocalRotation.y
      value: 0
      objectReference: {fileID: 0}
    - target: {fileID: 6325864983066269234, guid: 4c1c70fe5b48da64da0f127af1defa23,
        type: 3}
      propertyPath: m_LocalRotation.z
      value: 0
      objectReference: {fileID: 0}
    - target: {fileID: 6325864983066269234, guid: 4c1c70fe5b48da64da0f127af1defa23,
        type: 3}
      propertyPath: m_LocalEulerAnglesHint.x
      value: 0
      objectReference: {fileID: 0}
    - target: {fileID: 6325864983066269234, guid: 4c1c70fe5b48da64da0f127af1defa23,
        type: 3}
      propertyPath: m_LocalEulerAnglesHint.y
      value: 0
      objectReference: {fileID: 0}
    - target: {fileID: 6325864983066269234, guid: 4c1c70fe5b48da64da0f127af1defa23,
        type: 3}
      propertyPath: m_LocalEulerAnglesHint.z
      value: 0
      objectReference: {fileID: 0}
    m_RemovedComponents: []
  m_SourcePrefab: {fileID: 100100000, guid: 4c1c70fe5b48da64da0f127af1defa23, type: 3}
